0 0 0 0 0 -1655.89590351661
0 0 0 0 1 -1655.26628938015
0 0 0 0 2 -1655.54631251653
0 0 0 1 0 -1654.91669838006
0 0 0 1 1 -1653.04476239339
0 0 0 1 2 -1652.39276286703
0 0 0 2 0 -1652.67278600341
0 0 0 2 1 -1652.02078647705
0 0 0 2 2 -1650.10469597433
0 0 1 0 0 -1649.47508183786
0 0 1 0 1 -1647.60314585118
0 0 1 0 2 -1646.95114632482
0 0 1 1 0 -1645.07921033815
0 0 1 1 1 -1643.86643009678
0 0 1 1 2 -1642.43264978712
0 0 1 2 0 -1641.78065026075
0 0 1 2 1 -1640.34686995109
0 0 1 2 2 -1639.21819165328
0 0 2 0 0 -1639.49821478966
0 0 2 0 1 -1638.84621526330
0 0 2 0 2 -1636.93012476058
0 0 2 1 0 -1636.27812523422
0 0 2 1 1 -1634.84434492455
0 0 2 1 2 -1633.71566662675
0 0 2 2 0 -1631.79957612402
0 0 2 2 1 -1630.67089782622
0 0 2 2 2 -1629.95017767562
0 1 0 0 0 -1629.32056353915
0 1 0 0 1 -1627.44862755247
0 1 0 0 2 -1626.79662802611
0 1 0 1 0 -1624.92469203944
0 1 0 1 1 -1623.71191179807
0 1 0 1 2 -1622.27813148841
0 1 0 2 0 -1621.62613196205
0 1 0 2 1 -1620.19235165238
0 1 0 2 2 -1619.06367335457
0 1 1 0 0 -1617.19173736790
0 1 1 0 1 -1615.97895712653
0 1 1 0 2 -1614.54517681686
0 1 1 1 0 -1613.33239657550
0 1 1 1 1 -1610.17804849394
0 1 1 1 2 -1608.51652840813
0 1 1 2 0 -1607.08274809846
0 1 1 2 1 -1605.42122801265
0 1 1 2 2 -1602.86050581013
0 1 2 0 0 -1602.20850628377
0 1 2 0 1 -1600.77472597410
0 1 2 0 2 -1599.64604767629
0 1 2 1 0 -1598.21226736662
0 1 2 1 1 -1596.55074728082
0 1 2 1 2 -1593.99002507829
0 1 2 2 0 -1592.86134678049
0 1 2 2 1 -1590.30062457797
0 1 2 2 2 -1588.39445215331
0 2 0 0 0 -1588.67447528970
0 2 0 0 1 -1588.02247576333
0 2 0 0 2 -1586.10638526061
0 2 0 1 0 -1585.45438573425
0 2 0 1 1 -1584.02060542458
0 2 0 1 2 -1582.89192712678
0 2 0 2 0 -1580.97583662405
0 2 0 2 1 -1579.84715832625
0 2 0 2 2 -1579.12643817565
0 2 1 0 0 -1578.47443864929
0 2 1 0 1 -1577.04065833962
0 2 1 0 2 -1575.91198004181
0 2 1 1 0 -1574.47819973214
0 2 1 1 1 -1572.81667964633
0 2 1 1 2 -1570.25595744381
0 2 1 2 0 -1569.12727914601
0 2 1 2 1 -1566.56655694349
0 2 1 2 2 -1564.66038451883
0 2 2 0 0 -1562.74429401611
0 2 2 0 1 -1561.61561571830
0 2 2 0 2 -1560.89489556771
0 2 2 1 0 -1559.76621726990
0 2 2 1 1 -1557.20549506738
0 2 2 1 2 -1555.29932264272
0 2 2 2 0 -1554.57860249213
0 2 2 2 1 -1552.67243006747
0 2 2 2 2 -1549.03858349306
1 0 0 0 0 -2.02261689098286
1 0 0 0 1 -7.59450210797077
1 0 0 0 2 -31.4200707945945
1 0 0 1 0 -0.587951669112145
1 0 0 1 1 -3.81745553442190
1 0 0 1 2 -22.2947726751472
1 0 0 2 0 0.270436415159554
1 0 0 2 1 0.323730569090694
1 0 0 2 2 -2.94340044704206
1 0 1 0 0 -0.587951669112145
1 0 1 0 1 -3.81745553442190
1 0 1 0 2 -22.2947726751472
1 0 1 1 0 -1.78073120782759
1 0 1 1 1 -7.30494868441799
1 0 1 1 2 -34.0527281884305
1 0 1 2 0 -0.613088653455437
1 0 1 2 1 -3.48365656593125
1 0 1 2 2 -19.8195527657908
1 0 2 0 0 0.270436415159554
1 0 2 0 1 0.323730569090694
1 0 2 0 2 -2.94340044704206
1 0 2 1 0 -0.613088653455425
1 0 2 1 1 -3.48365656593075
1 0 2 1 2 -19.8195527657830
1 0 2 2 0 -1.82272140520537
1 0 2 2 1 -7.37480463414655
1 0 2 2 2 -33.3484882973605
1 1 0 0 0 -7.59450210797077
1 1 0 0 1 -30.1255825528105
1 1 0 0 2 -131.137090662445
1 1 0 1 0 -3.81745553442191
1 1 0 1 1 -20.5290025669256
1 1 0 1 2 -111.284086221537
1 1 0 2 0 0.323730569090558
1 1 0 2 1 -2.36222097867712
1 1 0 2 2 -30.0157910084023
1 1 1 0 0 -3.81745553442190
1 1 1 0 1 -20.5290025669256
1 1 1 0 2 -111.284086221537
1 1 1 1 0 -7.30494868441809
1 1 1 1 1 -32.2384172272883
1 1 1 1 2 -157.984030299722
1 1 1 2 0 -3.48365656593310
1 1 1 2 1 -18.3402355606450
1 1 1 2 2 -101.428139906136
1 1 2 0 0 0.323730569090594
1 1 2 0 1 -2.36222097867569
1 1 2 0 2 -30.0157910083935
1 1 2 1 0 -3.48365656593310
1 1 2 1 1 -18.3402355606450
1 1 2 1 2 -101.428139906136
1 1 2 2 0 -7.37480463414344
1 1 2 2 1 -31.6505161170577
1 1 2 2 2 -150.363048657134
1 2 0 0 0 -31.4200707945946
1 2 0 0 1 -131.137090662445
1 2 0 0 2 -597.182451931107
1 2 0 1 0 -22.2947726751472
1 2 0 1 1 -111.284086221537
1 2 0 1 2 -582.706614566439
1 2 0 2 0 -2.94340044704246
1 2 0 2 1 -30.0157910084012
1 2 0 2 2 -226.359944787327
1 2 1 0 0 -22.2947726751472
1 2 1 0 1 -111.284086221537
1 2 1 0 2 -582.706614566435
1 2 1 1 0 -34.0527281884320
1 2 1 1 1 -157.984030299722
1 2 1 1 2 -799.644941502077
1 2 1 2 0 -19.8195527657982
1 2 1 2 1 -101.428139906136
1 2 1 2 2 -554.592286262750
1 2 2 0 0 -2.94340044704136
1 2 2 0 1 -30.0157910083935
1 2 2 0 2 -226.359944787288
1 2 2 1 0 -19.8195527657982
1 2 2 1 1 -101.428139906136
1 2 2 1 2 -554.592286262750
1 2 2 2 0 -33.3484882972494
1 2 2 2 1 -150.363048657134
1 2 2 2 2 -743.732933858363
2 0 0 0 0 -0.0794123795206376
2 0 0 0 1 -0.582243221607697
2 0 0 0 2 -4.75019257281644
2 0 0 1 0 -0.0320581172889510
2 0 0 1 1 -0.294214410385042
2 0 0 1 2 -2.86769202554704
2 0 0 2 0 0.00816513738283440
2 0 0 2 1 0.0264086444562211
2 0 0 2 2 -0.102994868694252
2 0 1 0 0 -0.0320581172889510
2 0 1 0 1 -0.294214410385042
2 0 1 0 2 -2.86769202554704
2 0 1 1 0 -0.0721092586271823
2 0 1 1 1 -0.558622611928627
2 0 1 1 2 -4.84231398391051
2 0 1 2 0 -0.0301610867351859
2 0 1 2 1 -0.266920729540240
2 0 1 2 2 -2.56913829166004
2 0 2 0 0 0.00816513738283440
2 0 2 0 1 0.0264086444562211
2 0 2 0 2 -0.102994868694252
2 0 2 1 0 -0.0301610867350575
2 0 2 1 1 -0.266920729539878
2 0 2 1 2 -2.56913829167434
2 0 2 2 0 -0.0739285757868301
2 0 2 2 1 -0.564826093317601
2 0 2 2 2 -4.81573034806762
2 1 0 0 0 -0.582243221607697
2 1 0 0 1 -4.32811377913351
2 1 0 0 2 -35.7779915529647
2 1 0 1 0 -0.294214410385042
2 1 0 1 1 -2.59699984035184
2 1 0 1 2 -24.7102671387398
2 1 0 2 0 0.0264086444562860
2 1 0 2 1 -0.0839562737112483
2 1 0 2 2 -3.28270767365031
2 1 1 0 0 -0.294214410385043
2 1 1 0 1 -2.59699984035188
2 1 1 0 2 -24.7102671387398
2 1 1 1 0 -0.558622611928581
2 1 1 1 1 -4.40320655319542
2 1 1 1 2 -38.7141345563822
2 1 1 2 0 -0.266920729540240
2 1 1 2 1 -2.32806823223926
2 1 1 2 2 -22.2098272480289
2 1 2 0 0 0.0264086444562156
2 1 2 0 1 -0.0839562737110537
2 1 2 0 2 -3.28270767365199
2 1 2 1 0 -0.266920729540240
2 1 2 1 1 -2.32806823223926
2 1 2 1 2 -22.2098272480289
2 1 2 2 0 -0.564826093327642
2 1 2 2 1 -4.38124874376465
2 1 2 2 2 -37.8769828993015
2 2 0 0 0 -4.75019257281644
2 2 0 0 1 -35.7779915529647
2 2 0 0 2 -299.451172673449
2 2 0 1 0 -2.86769202554709
2 2 0 1 1 -24.7102671387400
2 2 0 1 2 -231.482447342603
2 2 0 2 0 -0.102994868694481
2 2 0 2 1 -3.28270767364239
2 2 0 2 2 -50.1439342846674
2 2 1 0 0 -2.86769202554703
2 2 1 0 1 -24.7102671387398
2 2 1 0 2 -231.482447342604
2 2 1 1 0 -4.84231398391041
2 2 1 1 1 -38.7141345563822
2 2 1 1 2 -344.301270961432
2 2 1 2 0 -2.56913829165006
2 2 1 2 1 -22.2098272480289
2 2 1 2 2 -210.711359827457
2 2 2 0 0 -0.102994868694758
2 2 2 0 1 -3.28270767365199
2 2 2 0 2 -50.1439342848088
2 2 2 1 0 -2.56913829165006
2 2 2 1 1 -22.2098272480289
2 2 2 1 2 -210.711359827457
2 2 2 2 0 -4.81573034811832
2 2 2 2 1 -37.8769828993015
2 2 2 2 2 -331.603659923242